{
    "solver-method": "cp-als",
    "timings": true,
    "tensor":
    {
        "input-file": "data/aminoacid_data_dense.txt",
        "index-base": 0,
        "format": "dense"
    },
    "k-tensor":
    {
        "rank": 16,
        "initial-guess": "rand",
        "distributed-guess": "serial",
        "seed": 12345,
        "prng": false
    },
    "cp-als":
    {
        "maxiters": 20,
        "tol": 1e-4,
        "mttkrp":
        {
            "method": "default"
        }
    },
    "testing":
    {
        "final-fit":
        {
            "value": 0.98,
            "absolute-tolerance": 0.1
        },
        "iterations":
        {
            "value": 8,
            "absolute-tolerance": 1
        }
    }
}
